…
### `gather()`

The help for `?gather` tells us that we first pass in a data frame (or omit the first argument, and pipe in the data with `%>%`). The next two arguments are the names of the key and value columns to create, and all the relevant arguments that come after that are the columns we want to _gather_ together. Here's one way to do it.


```r
hr %>% gather(key=drugdose, value=hr, a_10, a_20, b_10, b_20, c_10, c_20)
```

```
## # A tibble: 30 × 3
##     name drugdose    hr
##    <chr>    <chr> <int>
## 1    jon     a_10    60
## 2    ann     a_10    65
## 3   bill     a_10    70
## 4   kate     a_10    75
## 5    joe     a_10    80
## 6    jon     a_20    55
## 7    ann     a_20    60
## 8   bill     a_20    65
## 9   kate     a_20    70
## 10   joe     a_20    75
## # ... with 20 more rows
```

But that gets cumbersome to type all those names. What if we had 100 drugs and 3 doses of each? There are two other ways of specifying which columns to gather. The help for `?gather` tells you how to do this:

> `...` Specification of columns to gather. Use bare variable names. Select all variables between x and z with x:z, exclude y with -y. For more options, see the `select` documentation.

So, we could accomplish the same thing by doing this:


```r
hr %>% gather(key=drugdose, value=hr, a_10:c_20)
```

```
## # A tibble: 30 × 3
##     name drugdose    hr
##    <chr>    <chr> <int>
## 1    jon     a_10    60
## 2    ann     a_10    65
## 3   bill     a_10    70
## 4   kate     a_10    75
## 5    joe     a_10    80
## 6    jon     a_20    55
## 7    ann     a_20    60
## 8   bill     a_20    65
## 9   kate     a_20    70
## 10   joe     a_20    75
## # ... with 20 more rows
```

But what if we didn't know the drug names or doses, but we _did_ know that the only other column in there that we _don't_ want to gather is `name`?


```r
hr %>% gather(key=drugdose, value=hr, -name)
```

```
## # A tibble: 30 × 3
##     name drugdose    hr
##    <chr>    <chr> <int>
## 1    jon     a_10    60
## 2    ann     a_10    65
## 3   bill     a_10    70
## 4   kate     a_10    75
## 5    joe     a_10    80
## 6    jon     a_20    55
## 7    ann     a_20    60
## 8   bill     a_20    65
## 9   kate     a_20    70
## 10   joe     a_20    75
## # ... with 20 more rows
```
### `separate()`

Finally, look at the help for `?separate`. We can pipe in data and omit the first argument. The second argument is the column to separate; the `into` argument is a _character vector_ of the new column names, and the `sep` argument is a character used to separate columns, or a number indicating the position to split at.

> **_Side note, and 60-second lesson on vectors_**: We can create arbitrary-length _vectors_, which are simply variables that contain an arbitrary number of values. To create a numeric vector, try this: `c(5, 42, 22908)`. That creates a three element vector. Try `c("cat", "dog")`.


```r
hr %>% 
  gather(key=drugdose, value=hr, -name) %>% 
  separate(drugdose, into=c("drug", "dose"), sep="_")
```

```
## # A tibble: 30 × 4
##     name  drug  dose    hr
## *  <chr> <chr> <chr> <int>
## 1    jon     a    10    60
## 2    ann     a    10    65
## 3   bill     a    10    70
## 4   kate     a    10    75
## 5    joe     a    10    80
## 6    jon     a    20    55
## 7    ann     a    20    60
## 8   bill     a    20    65
## 9   kate     a    20    70
## 10   joe     a    20    75
## # ... with 20 more rows
```
…
# Import data
ydat <- read_csv("data/brauer2007_tidy.csv")

# Optionally, View
# View(ydat)

# Or just display to the screen
ydat
```

```
## # A tibble: 198,430 × 7
##    symbol systematic_name nutrient  rate expression
##     <chr>           <chr>    <chr> <dbl>      <dbl>
## 1    SFB2         YNL049C  Glucose  0.05      -0.24
## 2    <NA>         YNL095C  Glucose  0.05       0.28
## 3    QRI7         YDL104C  Glucose  0.05      -0.02
## 4    CFT2         YLR115W  Glucose  0.05      -0.33
## 5    SSO2         YMR183C  Glucose  0.05       0.05
## 6    PSP2         YML017W  Glucose  0.05      -0.69
## 7    RIB2         YOL066C  Glucose  0.05      -0.55
## 8   VMA13         YPR036W  Glucose  0.05      -0.75
## 9    EDC3         YEL015W  Glucose  0.05      -0.24
## 10   VPS5         YOR069W  Glucose  0.05      -0.16
## # ... with 198,420 more rows, and 2 more variables: bp <chr>, mf <chr>
```

But let's take a look to see what this data originally looked like.


```r
yorig <- read_csv("data/brauer2007_messy.csv")
# View(yorig)
yorig
```

```
## # A tibble: 5,536 × 40
##          GID       YORF                    NAME GWEIGHT G0.05  G0.1 G0.15
##        <chr>      <chr>                   <chr>   <int> <dbl> <dbl> <dbl>
## 1  GENE1331X A_06_P5820  SFB2::YNL049C::1082129       1 -0.24 -0.13 -0.21
## 2  GENE4924X A_06_P5866    NA::YNL095C::1086222       1  0.28  0.13 -0.40
## 3  GENE4690X A_06_P1834  QRI7::YDL104C::1085955       1 -0.02 -0.27 -0.27
## 4  GENE1177X A_06_P4928  CFT2::YLR115W::1081958       1 -0.33 -0.41 -0.24
## 5   GENE511X A_06_P5620  SSO2::YMR183C::1081214       1  0.05  0.02  0.40
## 6  GENE2133X A_06_P5307  PSP2::YML017W::1083036       1 -0.69 -0.03  0.23
## 7  GENE1002X A_06_P6258  RIB2::YOL066C::1081766       1 -0.55 -0.30 -0.12
## 8  GENE5478X A_06_P7082 VMA13::YPR036W::1086860       1 -0.75 -0.12 -0.07
## 9  GENE2065X A_06_P2554  EDC3::YEL015W::1082963       1 -0.24 -0.22  0.14
## 10 GENE2440X A_06_P6431  VPS5::YOR069W::1083389       1 -0.16 -0.38  0.05
## # ... with 5,526 more rows, and 33 more variables: G0.2 <dbl>,
## #   G0.25 <dbl>, G0.3 <dbl>, N0.05 <dbl>, N0.1 <dbl>, N0.15 <dbl>,
## #   N0.2 <dbl>, N0.25 <dbl>, N0.3 <dbl>, P0.05 <dbl>, P0.1 <dbl>,
## #   P0.15 <dbl>, P0.2 <dbl>, P0.25 <dbl>, P0.3 <dbl>, S0.05 <dbl>,
## #   S0.1 <dbl>, S0.15 <dbl>, S0.2 <dbl>, S0.25 <dbl>, S0.3 <dbl>,
## #   L0.05 <dbl>, L0.1 <dbl>, L0.15 <dbl>, L0.2 <dbl>, L0.25 <dbl>,
## #   L0.3 <dbl>, U0.05 <dbl>, U0.1 <dbl>, U0.15 <dbl>, U0.2 <dbl>,
## #   U0.25 <dbl>, U0.3 <dbl>
```
…
Let's `separate()` the `NAME` column `into` multiple different variables. The first row looks like this:

> `SFB2::YNL049C::1082129`

That is, it looks like we've got the gene symbol, the systematic name, and some other number (that isn't discussed in the paper). Let's `separate()`!


```r
yorig %>% 
  separate(NAME, into=c("symbol", "systematic_name", "somenumber"), sep="::")
```

```
## # A tibble: 5,536 × 42
##          GID       YORF symbol systematic_name somenumber GWEIGHT G0.05
## *      <chr>      <chr>  <chr>           <chr>      <chr>   <int> <dbl>
## 1  GENE1331X A_06_P5820   SFB2         YNL049C    1082129       1 -0.24
## 2  GENE4924X A_06_P5866     NA         YNL095C    1086222       1  0.28
## 3  GENE4690X A_06_P1834   QRI7         YDL104C    1085955       1 -0.02
## 4  GENE1177X A_06_P4928   CFT2         YLR115W    1081958       1 -0.33
## 5   GENE511X A_06_P5620   SSO2         YMR183C    1081214       1  0.05
## 6  GENE2133X A_06_P5307   PSP2         YML017W    1083036       1 -0.69
## 7  GENE1002X A_06_P6258   RIB2         YOL066C    1081766       1 -0.55
## 8  GENE5478X A_06_P7082  VMA13         YPR036W    1086860       1 -0.75
## 9  GENE2065X A_06_P2554   EDC3         YEL015W    1082963       1 -0.24
## 10 GENE2440X A_06_P6431   VPS5         YOR069W    1083389       1 -0.16
## # ... with 5,526 more rows, and 35 more variables: G0.1 <dbl>,
## #   G0.15 <dbl>, G0.2 <dbl>, G0.25 <dbl>, G0.3 <dbl>, N0.05 <dbl>,
## #   N0.1 <dbl>, N0.15 <dbl>, N0.2 <dbl>, N0.25 <dbl>, N0.3 <dbl>,
## #   P0.05 <dbl>, P0.1 <dbl>, P0.15 <dbl>, P0.2 <dbl>, P0.25 <dbl>,
## #   P0.3 <dbl>, S0.05 <dbl>, S0.1 <dbl>, S0.15 <dbl>, S0.2 <dbl>,
## #   S0.25 <dbl>, S0.3 <dbl>, L0.05 <dbl>, L0.1 <dbl>, L0.15 <dbl>,
## #   L0.2 <dbl>, L0.25 <dbl>, L0.3 <dbl>, U0.05 <dbl>, U0.1 <dbl>,
## #   U0.15 <dbl>, U0.2 <dbl>, U0.25 <dbl>, U0.3 <dbl>
```

Now, let's `select()` out the stuff we don't want.


```r
yorig %>% 
  separate(NAME, into=c("symbol", "systematic_name", "somenumber"), sep="::") %>% 
  select(-GID, -YORF, -somenumber, -GWEIGHT)
```

```
## # A tibble: 5,536 × 38
##    symbol systematic_name G0.05  G0.1 G0.15  G0.2 G0.25  G0.3 N0.05  N0.1
## *   <chr>           <chr> <dbl> <dbl> <dbl> <dbl> <dbl> <dbl> <dbl> <dbl>
## 1    SFB2         YNL049C -0.24 -0.13 -0.21 -0.15 -0.05 -0.05  0.20  0.24
## 2      NA         YNL095C  0.28  0.13 -0.40 -0.48 -0.11  0.17  0.31  0.00
## 3    QRI7         YDL104C -0.02 -0.27 -0.27 -0.02  0.24  0.25  0.23  0.06
## 4    CFT2         YLR115W -0.33 -0.41 -0.24 -0.03 -0.03  0.00  0.20 -0.25
## 5    SSO2         YMR183C  0.05  0.02  0.40  0.34 -0.13 -0.14 -0.35 -0.09
## 6    PSP2         YML017W -0.69 -0.03  0.23  0.20  0.00 -0.27  0.17 -0.40
## 7    RIB2         YOL066C -0.55 -0.30 -0.12 -0.03 -0.16 -0.11  0.04  0.00
## 8   VMA13         YPR036W -0.75 -0.12 -0.07  0.02 -0.32 -0.41  0.11 -0.16
## 9    EDC3         YEL015W -0.24 -0.22  0.14  0.06  0.00 -0.13  0.30  0.07
## 10   VPS5         YOR069W -0.16 -0.38  0.05  0.14 -0.04 -0.01  0.39  0.20
## # ... with 5,526 more rows, and 28 more variables: N0.15 <dbl>,
## #   N0.2 <dbl>, N0.25 <dbl>, N0.3 <dbl>, P0.05 <dbl>, P0.1 <dbl>,
## #   P0.15 <dbl>, P0.2 <dbl>, P0.25 <dbl>, P0.3 <dbl>, S0.05 <dbl>,
## #   S0.1 <dbl>, S0.15 <dbl>, S0.2 <dbl>, S0.25 <dbl>, S0.3 <dbl>,
## #   L0.05 <dbl>, L0.1 <dbl>, L0.15 <dbl>, L0.2 <dbl>, L0.25 <dbl>,
## #   L0.3 <dbl>, U0.05 <dbl>, U0.1 <dbl>, U0.15 <dbl>, U0.2 <dbl>,
## #   U0.25 <dbl>, U0.3 <dbl>
```

### `gather()` the nutrient+rate and expression data

Let's gather the data from wide to long format so we get nutrient/rate (key) and expression (value) in their own columns.


```r
yorig %>% 
  separate(NAME, into=c("symbol", "systematic_name", "somenumber"), sep="::") %>% 
  select(-GID, -YORF, -somenumber, -GWEIGHT) %>% 
  gather(key=nutrientrate, value=expression, G0.05:U0.3)
```

```
## # A tibble: 199,296 × 4
##    symbol systematic_name nutrientrate expression
##     <chr>           <chr>        <chr>      <dbl>
## 1    SFB2         YNL049C        G0.05      -0.24
## 2      NA         YNL095C        G0.05       0.28
## 3    QRI7         YDL104C        G0.05      -0.02
## 4    CFT2         YLR115W        G0.05      -0.33
## 5    SSO2         YMR183C        G0.05       0.05
## 6    PSP2         YML017W        G0.05      -0.69
## 7    RIB2         YOL066C        G0.05      -0.55
## 8   VMA13         YPR036W        G0.05      -0.75
## 9    EDC3         YEL015W        G0.05      -0.24
## 10   VPS5         YOR069W        G0.05      -0.16
## # ... with 199,286 more rows
```
…
Now, look up some help for `?inner_join`. Inner join will return a table with all rows from the first table where there are matching rows in the second table, and returns all columns from both tables. Let's give this a try.


```r
yjoined <- inner_join(ynogo, sn2go, by="systematic_name")
# View(yjoined)
yjoined
```

```
## # A tibble: 199,296 × 7
##    symbol systematic_name nutrient  rate expression
##     <chr>           <chr>    <chr> <chr>      <dbl>
## 1    SFB2         YNL049C        G  0.05      -0.24
## 2      NA         YNL095C        G  0.05       0.28
## 3    QRI7         YDL104C        G  0.05      -0.02
## 4    CFT2         YLR115W        G  0.05      -0.33
## 5    SSO2         YMR183C        G  0.05       0.05
## 6    PSP2         YML017W        G  0.05      -0.69
## 7    RIB2         YOL066C        G  0.05      -0.55
## 8   VMA13         YPR036W        G  0.05      -0.75
## 9    EDC3         YEL015W        G  0.05      -0.24
## 10   VPS5         YOR069W        G  0.05      -0.16
## # ... with 199,286 more rows, and 2 more variables: bp <chr>, mf <chr>
```
…
